-6.186318
-10.827206
1309.662977
0
-4.030487
-8.227162
1309.556811
0
-4.023121
-7.86943
1309.549974
0
-5.08812
-5.309763
1309.637491
0
-5.259283
-5.060148
1309.576759
0
-5.628528
-4.666479
1309.710046
1
-6.160909
-2.645409
1309.448277
1
-6.622691
-2.302953
1309.667218
0
-6.52582
-1.239383
1309.416774
1
-5.53708
4.538214
1309.042713
0
-6.216439 
6.944769 
1308.46217 
0
-6.527301
6.957027
1309.15206
1
-6.359663
8.250958
1309.200733
1
-6.009428
9.47747
1309.220137
0