-186.207327 
-104.703565 
1316.663552 
0
-185.934482 
-104.638521
1316.796286
0
-184.796352
-104.35664
1316.807906
0
-184.24025
-104.241272
1316.385074
0
-183.307773
-102.872753
1316.72414
0
-182.976582
-101.639595
1316.280913
1
-183.13948
-100.561965
1316.512899
0
-183.178724
-100.198956
1316.431024
0
-183.399878
-99.73492
1316.705242
0
-183.525397
-99.349782 
1316.665618 
0
-183.831567 
-98.604516 
1316.784748
0
-183.338869
-97.895702
1316.258076
0
-183.79927
-97.268714
1316.559524
1
-183.28104
-96.474197
1316.275315
1
-181.04058 
-91.834369 
1316.378514 
1
-180.964922
-88.098952 
1316.284317 
0
-179.920036 
-86.154754 
1315.657977 
1